Analyse des live – Anassé Yahanan
…
num_likes : Le nombre total de “J’aime” pour la publication.

num_loves : Le nombre total de “Love” réactions pour la publication.

num_wows : Le nombre total de “Wow” réactions pour la publication.

num_hahas : Le nombre total de “Haha” réactions pour la publication.

num_sads : Le nombre total de “Sad” réactions pour la publication.

num_angrys : Le nombre total de “Angry” réactions pour la publication.

Selection des colonnes pertinentes

# A tibble: 7,050 × 11
   status_id         status_type num_reactions num_comments num_shares num_likes
   <chr>             <chr>               <dbl>        <dbl>      <dbl>     <dbl>
 1 246675545449582_… video                 529          512        262       432
 2 246675545449582_… photo                 150            0          0       150
 3 246675545449582_… video                 227          236         57       204
 4 246675545449582_… photo                 111            0          0       111
 5 246675545449582_… photo                 213            0          0       204
 6 246675545449582_… photo                 217            6          0       211
 7 246675545449582_… video                 503          614         72       418
 8 246675545449582_… video                 295          453         53       260
 9 246675545449582_… photo                 203            1          0       198
10 246675545449582_… photo                 170            9          1       167
# ℹ 7,040 more rows
# ℹ 5 more variables: num_loves <dbl>, num_wows <dbl>, num_hahas <dbl>,
#   num_sads <dbl>, num_angrys <dbl>
…
